{
  "name": "Level",
  "base": "BaseModel",
  "options": {
    "idInjection": false,
    "postgresql": {
      "schema": "godeepmobile",
      "table": "go_level"
    },
    "relations": {}
  },
  "properties": {
    "id": {
      "type": "Number",
      "required": true,
      "length": null,
      "precision": 32,
      "scale": 0,
      "id": 1,
      "postgresql": {
        "columnName": "id",
        "dataType": "integer",
        "dataLength": null,
        "dataPrecision": 32,
        "dataScale": 0,
        "nullable": "NO"
      }
    },
    "name": {
      "type": "String",
      "required": true,
      "length": 100,
      "precision": null,
      "scale": null,
      "postgresql": {
        "columnName": "name",
        "dataType": "character varying",
        "dataLength": 100,
        "dataPrecision": null,
        "dataScale": null,
        "nullable": "NO"
      }
    },
    "shortName": {
      "type": "String",
      "required": false,
      "length": 4,
      "precision": null,
      "scale": null,
      "postgresql": {
        "columnName": "short_name",
        "dataType": "character varying",
        "dataLength": 4,
        "dataPrecision": null,
        "dataScale": null,
        "nullable": "YES"
      }
    },
    "description": {
      "type": "String",
      "required": false,
      "length": 256,
      "precision": null,
      "scale": null,
      "postgresql": {
        "columnName": "description",
        "dataType": "character varying",
        "dataLength": 256,
        "dataPrecision": null,
        "dataScale": null,
        "nullable": "YES"
      }
    }
  },
  "scope": {
    "order": "shortName"
  },
  "acls": [
    {
      "accessType": "*",
      "principalType": "ROLE",
      "principalId": "$everyone",
      "permission": "DENY"
    },
    {
      "accessType": "*",
      "principalType": "ROLE",
      "principalId": "$authenticated",
      "permission": "ALLOW"
    }
  ]
}
