{
  "name": "Team",
  "plural": "Teams",
  "base": "BaseModel",
  "idInjection": false,
  "postgresql": {
    "schema": "godeepmobile",
    "table": "view_go_team"
  },
  "properties": {
    "id": {
      "type": "String",
      "generated": false,
      "id": true,
      "postgresql": {
        "columnName": "id",
        "dataType": "uuid",
        "dbDefault": "uuid_generate_v4()",
        "nullable": "NO"
      }
    },
    "name": {
      "description": "organization name. read-only.",
      "type": "String",
      "required": false,
      "length": 512,
      "precision": null,
      "scale": null,
      "postgresql": {
        "columnName": "name",
        "dataType": "character varying",
        "dataLength": 512,
        "dataPrecision": null,
        "dataScale": null,
        "nullable": "YES"
      }
    },
    "shortName": {
      "type": "String",
      "required": true,
      "length": 128,
      "precision": null,
      "scale": null,
      "postgresql": {
        "columnName": "short_name",
        "dataType": "character varying",
        "dataLength": 128,
        "dataPrecision": null,
        "dataScale": null,
        "nullable": "YES"
      }
    },
    "abbreviation": {
      "type": "String",
      "required": false,
      "length": 8,
      "precision": null,
      "scale": null,
      "postgresql": {
        "columnName": "abbreviation",
        "dataType": "character varying",
        "dataLength": 8,
        "dataPrecision": null,
        "dataScale": null,
        "nullable": "YES"
      }
    },
    "mascot": {
      "type": "String",
      "required": false,
      "length": 128,
      "precision": null,
      "scale": null,
      "postgresql": {
        "columnName": "mascot",
        "dataType": "character varying",
        "dataLength": 128,
        "dataPrecision": null,
        "dataScale": null,
        "nullable": "YES"
      }
    },
    "conferenceName": {
      "description": "conference name. read-only.",
      "type": "String",
      "required": false,
      "length": 10,
      "precision": null,
      "scale": null,
      "postgresql": {
        "columnName": "conference_name",
        "dataType": "character varying",
        "dataLength": 10,
        "dataPrecision": null,
        "dataScale": null,
        "nullable": "YES"
      }
    },
    "conferenceLevel": {
      "description": "conference name. read-only.",
      "type": "String",
      "required": false,
      "length": 8,
      "precision": null,
      "scale": null,
      "postgresql": {
        "columnName": "conference_level",
        "dataType": "character varying",
        "dataLength": 8,
        "dataPrecision": null,
        "dataScale": null,
        "nullable": "YES"
      }
    },
    "isProTeam": {
      "type": "boolean",
      "required": false,
      "postgresql": {
        "columnName": "is_pro_team",
        "dataType": "boolean",
        "nullable": "YES"
      }
    },
    "conference": {
      "type": "Number",
      "required": false,
      "precision": 32,
      "scale": null,
      "postgresql": {
        "columnName": "go_conference_id",
        "dataType": "integer",
        "dataPrecision": 32,
        "nullable": "YES"
      }
    },
    "organization": {
      "type": "Number",
      "required": true,
      "precision": 32,
      "scale": null,
      "postgresql": {
        "columnName": "go_organization_id",
        "dataType": "integer",
        "dataPrecision": 32,
        "nullable": "YES"
      }
    },
    "sport": {
      "type": "Number",
      "required": true,
      "postgresql": {
        "columnName": "go_sport_type_id",
        "dataType": "character varying",
        "nullable": "YES"
      }
    },
    "street1": {
      "type": "String",
      "required": false,
      "length": 256,
      "precision": null,
      "scale": null,
      "postgresql": {
        "columnName": "addr_street1",
        "dataType": "character varying",
        "dataLength": 256,
        "dataPrecision": null,
        "dataScale": null,
        "nullable": "YES"
      }
    },
    "street2": {
      "type": "String",
      "required": false,
      "length": 256,
      "precision": null,
      "scale": null,
      "postgresql": {
        "columnName": "addr_street2",
        "dataType": "character varying",
        "dataLength": 256,
        "dataPrecision": null,
        "dataScale": null,
        "nullable": "YES"
      }
    },
    "city": {
      "type": "String",
      "required": false,
      "length": 256,
      "precision": null,
      "scale": null,
      "postgresql": {
        "columnName": "addr_city",
        "dataType": "character varying",
        "dataLength": 256,
        "dataPrecision": null,
        "dataScale": null,
        "nullable": "YES"
      }
    },
    "state": {
      "type": "Number",
      "required": false,
      "precision": 32,
      "postgresql": {
        "columnName": "addr_state_id",
        "dataType": "integer",
        "dataLength": 32,
        "nullable": "YES"
      }
    },
    "postal": {
      "type": "String",
      "required": false,
      "length": 16,
      "precision": null,
      "scale": null,
      "postgresql": {
        "columnName": "addr_postal_code",
        "dataType": "character varying",
        "dataLength": 16,
        "dataPrecision": null,
        "dataScale": null,
        "nullable": "YES"
      }
    },
    "phoneMain": {
      "type": "String",
      "required": false,
      "length": 20,
      "precision": null,
      "scale": null,
      "postgresql": {
        "columnName": "addr_phone_main",
        "dataType": "character varying",
        "dataLength": 20,
        "dataPrecision": null,
        "dataScale": null,
        "nullable": "YES"
      }
    },
    "phoneFax": {
      "type": "String",
      "required": false,
      "length": 20,
      "precision": null,
      "scale": null,
      "postgresql": {
        "columnName": "addr_phone_fax",
        "dataType": "character varying",
        "dataLength": 20,
        "dataPrecision": null,
        "dataScale": null,
        "nullable": "YES"
      }
    },
    "homeStadium": {
      "type": "String",
      "required": false,
      "length": 128,
      "precision": null,
      "scale": null,
      "postgresql": {
        "columnName": "home_stadium",
        "dataType": "character varying",
        "dataLength": 128,
        "dataPrecision": null,
        "dataScale": null,
        "nullable": "YES"
      }
    },
    "surfaceType": {
      "type": "Number",
      "required": false,
      "length": 32,
      "precision": null,
      "scale": null,
      "postgresql": {
        "columnName": "go_surface_type_id",
        "dataType": "integer",
        "dataLength": 32,
        "dataPrecision": null,
        "dataScale": null,
        "nullable": "YES"
      }
    },
    "filmSystem": {
      "type": "String",
      "required": false,
      "length": 16,
      "precision": null,
      "scale": null,
      "postgresql": {
        "columnName": "film_system",
        "dataType": "character varying",
        "dataLength": 16,
        "dataPrecision": null,
        "dataScale": null,
        "nullable": "YES"
      }
    },
    "assetBaseUrl": {
      "type": "String",
      "required": false,
      "length": 512,
      "precision": null,
      "scale": null,
      "postgresql": {
        "columnName": "asset_base_url",
        "dataType": "character varying",
        "dataLength": 512,
        "dataPrecision": null,
        "dataScale": null,
        "nullable": "YES"
      }
    },
    "numPlayGrades": {
      "type": "Number",
      "required": false,
      "precision": 32,
      "scale": null,
      "postgresql": {
        "columnName": "num_play_grades",
        "dataType": "integer",
        "dataPrecision": 32,
        "nullable": "YES"
      }
    }
  },
  "validations": [],
  "relations": {
    "players": {
      "type": "hasMany",
      "model": "TeamPlayer",
      "foreignKey": "team"
    },
    "positionTypes": {
      "type": "hasMany",
      "model": "TeamPositionType",
      "foreignKey": "team"
    },
    "teamEvents": {
      "model": "TeamEvent",
      "type": "hasMany",
      "foreignKey": "team"
    },
    "teamPracticeDrillTypes": {
      "model": "TeamPracticeDrillType",
      "type": "hasMany",
      "foreignKey": "team"
    },
    "teamUserPositionGroupAssignments": {
      "model": "TeamUserPositionGroupAssignment",
      "type": "hasMany",
      "foreignKey": "team"
    }
  },
  "acls": [
    {
      "accessType": "*",
      "principalType": "ROLE",
      "principalId": "$everyone",
      "permission": "DENY"
    },
    {
      "accessType": "*",
      "principalType": "ROLE",
      "principalId": "TEAM-ADMIN",
      "permission": "ALLOW"
    },
    {
      "accessType": "READ",
      "principalType": "ROLE",
      "principalId": "GRADER",
      "permission": "ALLOW"
    },
    {
      "principalType": "ROLE",
      "principalId": "$authenticated",
      "permission": "ALLOW",
      "property": "reportAggregateGrades"
    }
  ],
  "methods": []
}
