{
  "name": "UserRoleType",
  "base": "Role",
  "idInjection": true,
  "postgresql": {
    "schema": "godeepmobile",
    "table": "view_go_user_role_type"
  },
  "properties": {},
  "validations": [],
  "relations": {
    "teamAssignments": {
      "type": "hasMany",
      "model": "UserTeamAssignment",
      "foreignKey": "go_user_role_type_id"
    },
    "permissions": {
      "type": "hasMany",
      "model": "RolePermission",
      "foreignKey": "go_user_role_type_id"
    }
  },
  "acls": [
    {
      "accessType": "*",
      "principalType": "ROLE",
      "principalId": "$everyone",
      "permission": "DENY"
    },
    {
      "accessType": "*",
      "principalType": "ROLE",
      "principalId": "$authenticated",
      "permission": "ALLOW"
    }
  ],
  "methods": []
}
