{
  "name": "lb_upload_status",
  "base": "PersistedModel",
  "idInjection": true,
  "postgresql": {
    "schema": "godeepmobile",
    "table": "lb_upload_status"
  },
  "properties": {
    "modelType": {
      "type": "String",
      "required": true,
      "length": 100,
      "precision": null,
      "scale": null,
      "postgresql": {
        "columnName": "modelType",
        "dataType": "character varying",
        "dataLength": 100,
        "dataPrecision": null,
        "dataScale": null,
        "nullable": "NO"
      }
    },
    "status": {
      "type": "String",
      "required": true,
      "length": 100,
      "precision": null,
      "scale": null,
      "postgresql": {
        "columnName": "status",
        "dataType": "character varying",
        "dataLength": 100,
        "dataPrecision": null,
        "dataScale": null,
        "nullable": "NO"
      }
    },
    "errorDescription": {
      "type": "String",
      "required": false,
      "length": 256,
      "precision": null,
      "scale": null,
      "postgresql": {
        "columnName": "error_description",
        "dataType": "character varying",
        "dataLength": 256,
        "dataPrecision": null,
        "dataScale": null,
        "nullable": "YES"
      }
    },
    "numRecords": {
      "type": "Number",
      "required": false,
      "length": null,
      "precision": 16,
      "scale": 0,
      "postgresql": {
        "columnName": "num_records",
        "dataType": "integer",
        "dataLength": null,
        "dataPrecision": 16,
        "dataScale": 0,
        "nullable": "YES"
      }
    },
    "fileUri": {
      "type": "String",
      "required": true,
      "length": 100,
      "precision": null,
      "scale": null,
      "postgresql": {
        "columnName": "file_uri",
        "dataType": "character varying",
        "dataLength": 100,
        "dataPrecision": null,
        "dataScale": null,
        "nullable": "NO"
      }
    },
    "uploadDate": {
      "type": "Date",
      "required": true,
      "length": null,
      "precision": null,
      "scale": null,
      "postgresql": {
        "columnName": "upload_date",
        "dataType": "date",
        "dataLength": null,
        "dataPrecision": null,
        "dataScale": null,
        "nullable": "NO"
      }
    },
    "user": {
      "type": "Number",
      "required": true,
      "length": null,
      "precision": 32,
      "scale": 0,
      "postgresql": {
        "columnName": "go_user_id",
        "dataType": "integer",
        "dataLength": null,
        "dataPrecision": 32,
        "dataScale": 0,
        "nullable": "NO"
      }
    }
  }
}
