{
  "name": "PlayerEvaluationStat",
  "base": "BaseTeamModel",
  "options": {
    "idInjection": false,
    "postgresql": {
      "schema": "godeepmobile",
      "table": "player_evaluation_stat"
    },
    "relations": {}
  },
  "properties": {
    "id": {
      "type": "Number",
      "id": true,
      "generated": true,
      "length": null,
      "precision": 32,
      "scale": 0,
      "postgresql": {
        "columnName": "id",
        "dataType": "integer",
        "dataLength": null,
        "dataPrecision": 32,
        "dataScale": 0,
        "nullable": "NO"
      }
    },
    "team": {
      "type": "String",
      "required": true,
      "postgresql": {
        "columnName": "go_team_id",
        "dataType": "uuid",
        "nullable": "NO"
      }
    },
    "teamPlayer": {
      "type": "String",
      "required": true,
      "postgresql": {
        "columnName": "team_player_id",
        "dataType": "uuid",
        "nullable": "NO"
      }
    },
    "user": {
      "type": "Number",
      "required": true,
      "length": null,
      "precision": 32,
      "scale": 0,
      "postgresql": {
        "columnName": "go_user_id",
        "dataType": "integer",
        "dataLength": null,
        "dataPrecision": 32,
        "dataScale": 0,
        "nullable": "NO"
      }
    },
    "TeamScoutingEvalScoreGroup": {
      "type": "Number",
      "required": true,
      "length": null,
      "precision": 32,
      "scale": 0,
      "id": 1,
      "postgresql": {
        "columnName": "team_scouting_eval_score_group_id",
        "dataType": "integer",
        "dataLength": null,
        "dataPrecision": 32,
        "dataScale": 0,
        "nullable": "NO"
      }
    },
    "season": {
      "type": "Number",
      "required": false,
      "length": null,
      "precision": 32,
      "scale": 0,
      "postgresql": {
        "columnName": "season",
        "dataType": "integer",
        "dataLength": null,
        "dataPrecision": 32,
        "dataScale": 0,
        "nullable": "YES"
      }
    },
    "targetMatch": {
      "type": "Number",
      "required": false,
      "length": null,
      "precision": 16,
      "scale": 0,
      "postgresql": {
        "columnName": "target_match",
        "dataType": "smallint",
        "dataLength": null,
        "dataPrecision": 16,
        "dataScale": 0,
        "nullable": "YES"
      }
    },
    "overallEvalAvg": {
      "type": "Number",
      "required": false,
      "length": null,
      "postgresql": {
        "columnName": "overall_eval_avg",
        "dataType": "numeric",
        "dataLength": null,
        "nullable": "YES"
      }
    },
    "majorFactors": {
      "type": "Number",
      "required": false,
      "length": null,
      "postgresql": {
        "columnName": "major_factors",
        "dataType": "numeric",
        "dataLength": null,
        "nullable": "YES"
      }
    },
    "criticalFactors": {
      "type": "Number",
      "required": false,
      "length": null,
      "postgresql": {
        "columnName": "critical_factors",
        "dataType": "numeric",
        "dataLength": null,
        "nullable": "YES"
      }
    },
    "positionSkills": {
      "type": "Number",
      "required": false,
      "length": null,
      "postgresql": {
        "columnName": "position_skills",
        "dataType": "numeric",
        "dataLength": null,
        "nullable": "YES"
      }
    },
    "rankOverall": {
      "type": "Number",
      "required": false,
      "length": null,
      "precision": 16,
      "scale": 0,
      "postgresql": {
        "columnName": "rank_overall",
        "dataType": "smallint",
        "dataLength": null,
        "dataPrecision": 16,
        "dataScale": 0,
        "nullable": "YES"
      }
    },
    "rankAtPost": {
      "type": "Number",
      "required": false,
      "length": null,
      "precision": 16,
      "scale": 0,
      "postgresql": {
        "columnName": "rank_at_post",
        "dataType": "smallint",
        "dataLength": null,
        "dataPrecision": 16,
        "dataScale": 0,
        "nullable": "YES"
      }
    },
    "date": {
      "type": "Date",
      "required": false,
      "length": null,
      "precision": null,
      "scale": null,
      "postgresql": {
        "columnName": "date",
        "dataType": "date",
        "dataLength": null,
        "dataPrecision": null,
        "dataScale": null,
        "nullable": "YES"
      }
    }
  },
  "acls": [
    {
      "accessType": "*",
      "principalType": "ROLE",
      "principalId": "$everyone",
      "permission": "DENY"
    },
    {
      "accessType": "*",
      "principalType": "ROLE",
      "principalId": "$authenticated",
      "permission": "ALLOW"
    }
  ]
}
