{
  "name": "ProspectEvaluationRankOverall",
  "base": "BaseTeamModel",
  "options": {
    "idInjection": false,
    "postgresql": {
      "schema": "godeepmobile",
      "table": "view_prospect_evaluation_season_stat"
    },
    "relations": {}
  },
  "properties": {
    "id": {
      "type": "String",
      "required": true,
      "postgresql": {
        "columnName": "id",
        "dataType": "uuid",
        "nullable": "NO"
      }
    },
    "team": {
      "type": "String",
      "required": true,
      "postgresql": {
        "columnName": "go_team_id",
        "dataType": "uuid",
        "nullable": "NO"
      }
    },
    "teamProspect": {
      "type": "String",
      "required": true,
      "postgresql": {
        "columnName": "team_prospect_id",
        "dataType": "uuid",
        "nullable": "NO"
      }
    },
    "teamProspectAssignment": {
      "type": "String",
      "required": true,
      "postgresql": {
        "columnName": "team_prospect_assignment_id",
        "dataType": "uuid",
        "nullable": "NO"
      }
    },
    "season": {
      "type": "Number",
      "required": true,
      "length": null,
      "precision": 32,
      "scale": 0,
      "id": 1,
      "postgresql": {
        "columnName": "season",
        "dataType": "integer",
        "dataLength": null,
        "dataPrecision": 32,
        "dataScale": 0,
        "nullable": "NO"
      }
    },
    "numEvaluations": {
      "type": "Number",
      "required": false,
      "length": null,
      "precision": 32,
      "scale": 0,
      "id": 1,
      "postgresql": {
        "columnName": "num_evaluations",
        "dataType": "integer",
        "dataLength": null,
        "dataPrecision": 32,
        "dataScale": 0,
        "nullable": "YES"
      }
    },
    "rankOverall": {
      "type": "Number",
      "required": false,
      "length": null,
      "precision": 16,
      "scale": 0,
      "postgresql": {
        "columnName": "rank_overall",
        "dataType": "smallint",
        "dataLength": null,
        "dataPrecision": 16,
        "dataScale": 0,
        "nullable": "YES"
      }
    },
    "rankAtPost": {
      "type": "Number",
      "required": false,
      "length": null,
      "precision": 16,
      "scale": 0,
      "postgresql": {
        "columnName": "rank_at_post",
        "dataType": "smallint",
        "dataLength": null,
        "dataPrecision": 16,
        "dataScale": 0,
        "nullable": "YES"
      }
    },
    "targetMatch": {
      "type": "Number",
      "required": false,
      "length": null,
      "precision": 16,
      "scale": 0,
      "postgresql": {
        "columnName": "target_match",
        "dataType": "smallint",
        "dataLength": null,
        "dataPrecision": 16,
        "dataScale": 0,
        "nullable": "YES"
      }
    },
    "overallEvalAvg": {
      "type": "Number",
      "required": false,
      "length": null,
      "postgresql": {
        "columnName": "overall_eval_avg",
        "dataType": "numeric",
        "dataLength": null,
        "nullable": "YES"
      }
    },
    "majorFactorsEvalAvg": {
      "type": "Number",
      "required": false,
      "length": null,
      "postgresql": {
        "columnName": "major_factors_eval_avg",
        "dataType": "numeric",
        "dataLength": null,
        "nullable": "YES"
      }
    },
    "criticalFactorsEvalAvg": {
      "type": "Number",
      "required": false,
      "length": null,
      "postgresql": {
        "columnName": "critical_factors_eval_avg",
        "dataType": "numeric",
        "dataLength": null,
        "nullable": "YES"
      }
    },
    "positionSkillsEvalAvg": {
      "type": "Number",
      "required": false,
      "length": null,
      "postgresql": {
        "columnName": "position_skills_eval_avg",
        "dataType": "numeric",
        "dataLength": null,
        "nullable": "YES"
      }
    }
  },
  "acls": [
    {
      "accessType": "*",
      "principalType": "ROLE",
      "principalId": "$everyone",
      "permission": "DENY"
    },
    {
      "accessType": "*",
      "principalType": "ROLE",
      "principalId": "$authenticated",
      "permission": "ALLOW"
    }
  ]
}
