{
  "name": "TeamReportPlayerEventDataByQuarter",
  "base": "BaseTeamModel",
  "options": {
    "idInjection": false,
    "postgresql": {
      "schema": "godeepmobile",
      "table": "view_team_player_event_grades_by_quarter"
    },
    "relations": {}
  },
  "properties": {
    "id":{
      "type":"String",
      "required":true,
      "postgresql": {
        "columnName": "id",
        "dataType": "text",
        "nullable": "NO"
      }
    },
    "team": {
      "type": "String",
      "required": true,
      "postgresql": {
        "columnName": "go_team_id",
        "dataType": "uuid",
        "nullable": "NO"
      }
    },
    "teamPlayer": {
      "type": "String",
      "required": true,
      "postgresql": {
        "columnName": "team_player_id",
        "dataType": "uuid",
        "nullable": "NO"
      }
    },
    "teamEvent": {
      "type": "Number",
      "required": true,
      "length": null,
      "precision": 32,
      "scale": 0,
      "postgresql": {
        "columnName": "team_event_id",
        "dataType": "integer",
        "dataLength": null,
        "dataPrecision": 32,
        "dataScale": 0,
        "nullable": "NO"
      }
    },
    "quarter": {
      "type": "Number",
      "required": true,
      "length": null,
      "precision": 32,
      "scale": 0,
      "postgresql": {
        "columnName": "quarter",
        "dataType": "integer",
        "dataLength": null,
        "dataPrecision": 32,
        "dataScale": 0,
        "nullable": "NO"
      }
    },
    "numPlays": {
      "type": "Number",
      "required": false,
      "length": null,
      "precision": 32,
      "scale": 0,
      "postgresql": {
        "columnName": "num_plays",
        "dataType": "integer",
        "dataLength": null,
        "dataPrecision": 32,
        "dataScale": 0,
        "nullable": "YES"
      }
    },
    "cat1Grade": {
      "type": "Number",
      "required": true,
      "length": null,
      "precision": 32,
      "scale": 0,
      "postgresql": {
        "columnName": "avg_cat1_grade",
        "dataType": "integer",
        "dataLength": null,
        "dataPrecision": 32,
        "dataScale": 0,
        "nullable": "NO"
      }
    },
    "cat2Grade": {
      "type": "Number",
      "required": true,
      "length": null,
      "precision": 32,
      "scale": 0,
      "postgresql": {
        "columnName": "avg_cat2_grade",
        "dataType": "integer",
        "dataLength": null,
        "dataPrecision": 32,
        "dataScale": 0,
        "nullable": "NO"
      }
    },
    "cat3Grade": {
      "type": "Number",
      "required": true,
      "length": null,
      "precision": 32,
      "scale": 0,
      "postgresql": {
        "columnName": "avg_cat3_grade",
        "dataType": "integer",
        "dataLength": null,
        "dataPrecision": 32,
        "dataScale": 0,
        "nullable": "NO"
      }
    },
    "avgOverallGrade": {
      "type": "Number",
      "required": true,
      "length": null,
      "precision": 32,
      "scale": 0,
      "postgresql": {
        "columnName": "avg_overall_grade",
        "dataType": "integer",
        "dataLength": null,
        "dataPrecision": 32,
        "dataScale": 0,
        "nullable": "NO"
      }
    }
  },
  "acls": [
    {
      "accessType": "*",
      "principalType": "ROLE",
      "principalId": "$everyone",
      "permission": "DENY"
    },
    {
      "accessType": "*",
      "principalType": "ROLE",
      "principalId": "TEAM-ADMIN",
      "permission": "ALLOW"
    },
    {
      "accessType": "READ",
      "principalType": "ROLE",
      "principalId": "GRADER",
      "permission": "ALLOW"
    },
    {
      "accessType": "*",
      "principalType": "ROLE",
      "principalId": "PLAYER",
      "permission": "ALLOW"
    }
  ]
}
