{
  "name": "TeamEventGradeStatus",
  "plural": "TeamEventGradeStatuses",
  "base": "BaseTeamModel",
  "idInjection": true,
  "options": {
    "validateUpsert":true
  },
  "postgresql": {
    "schema": "godeepmobile",
    "table": "view_team_event_grade_status"
  },
  "properties": {
    "team": {
      "type": "String",
      "required": true,
      "postgresql": {
        "columnName": "go_team_id",
        "dataType": "uuid",
        "nullable": "NO"
      }
    },
    "user": {
      "type": "Number",
      "required": true,
      "length": null,
      "precision": 32,
      "scale": 0,
      "postgresql": {
        "columnName": "go_user_id",
        "dataType": "integer",
        "dataLength": null,
        "dataPrecision": 32,
        "dataScale": 0,
        "nullable": "NO"
      }
    },
    "status": {
      "description": "this is a calculated field and is read-only",
      "type": "String",
      "required": false,
      "precision": null,
      "scale": null,
      "postgresql": {
        "columnName": "status",
        "dataType": "text",
        "nullable": "YES"
      }
    },
    "teamEvent": {
      "type": "Number",
      "required": true,
      "length": null,
      "precision": 32,
      "scale": 0,
      "postgresql": {
        "columnName": "team_event_id",
        "dataType": "integer",
        "dataLength": null,
        "dataPrecision": 32,
        "dataScale": 0,
        "nullable": "NO"
      }
    },
    "teamCutup": {
      "type": "Number",
      "required": true,
      "length": null,
      "precision": 32,
      "scale": 0,
      "postgresql": {
        "columnName": "team_cutup_id",
        "dataType": "integer",
        "dataLength": null,
        "dataPrecision": 32,
        "dataScale": 0,
        "nullable": "NO"
      }
    },
    "startedDate": {
      "description": "when grading has started. if NULL, then grading has not started",
      "type": "Date",
      "required": false,
      "length": null,
      "precision": null,
      "scale": null,
      "postgresql": {
        "columnName": "started_date",
        "dataType": "date",
        "dataLength": null,
        "dataPrecision": null,
        "dataScale": null,
        "nullable": "YES"
      }
    },
    "lastSubmitDate": {
      "description": "when grades have been added by user. if NULL then he doesn't sent any yet",
      "type": "Date",
      "required": false,
      "length": null,
      "precision": null,
      "scale": null,
      "postgresql": {
        "columnName": "last_submit_date",
        "dataType": "date",
        "dataLength": null,
        "dataPrecision": null,
        "dataScale": null,
        "nullable": "YES"
      }
    },
    "lastGradedPlay": {
      "type": "Number",
      "required": false,
      "length": null,
      "precision": 32,
      "scale": 0,
      "postgresql": {
        "columnName": "last_graded_play",
        "dataType": "integer",
        "dataLength": null,
        "dataPrecision": 32,
        "dataScale": 0,
        "nullable": "YES"
      }
    }
  },
  "validations": [],
  "relations": {},
  "acls": [
    {
      "accessType": "*",
      "principalType": "ROLE",
      "principalId": "$everyone",
      "permission": "DENY"
    },
    {
      "accessType": "*",
      "principalType": "ROLE",
      "principalId": "TEAM-ADMIN",
      "permission": "ALLOW"
    },
    {
      "accessType": "*",
      "principalType": "ROLE",
      "principalId": "GRADER",
      "permission": "ALLOW"
    }
  ],
  "methods": []
}
