{
  "name": "TeamTargetProfile",
  "base": "BaseTeamModel",
  "options": {
    "idInjection": false,
    "postgresql": {
      "schema": "godeepmobile",
      "table": "team_target_profile"
    },
    "relations": {}
  },
  "properties": {
    "id": {
      "type": "Number",
      "id": true,
      "generated": true,
      "length": null,
      "precision": 32,
      "scale": 0,
      "postgresql": {
        "columnName": "id",
        "dataType": "integer",
        "dataLength": null,
        "dataPrecision": 32,
        "dataScale": 0,
        "nullable": "NO"
      }
    },
    "team": {
      "type": "String",
      "required": true,
      "postgresql": {
        "columnName": "go_team_id",
        "dataType": "uuid",
        "nullable": "NO"
      }
    },
    "calculatedTargetScore": {
      "type": "Number",
      "required": false,
      "length": null,
      "postgresql": {
        "columnName": "calculated_target_score",
        "dataType": "numeric",
        "dataLength": null,
        "nullable": "YES"
      }
    },
    "scoutingEvalCriteriaType": {
      "type": "Number",
      "required": true,
      "length": null,
      "precision": 32,
      "scale": 0,
      "postgresql": {
        "columnName": "go_scouting_eval_criteria_type_id",
        "dataType": "integer",
        "dataLength": null,
        "dataPrecision": 32,
        "dataScale": 0,
        "nullable": "NO"
      }
    },
    "positionType": {
      "type": "Number",
      "required": true,
      "length": null,
      "precision": 32,
      "scale": 0,
      "postgresql": {
        "columnName": "go_position_type_id",
        "dataType": "integer",
        "dataLength": null,
        "dataPrecision": 32,
        "dataScale": 0,
        "nullable": "NO"
      }
    },
    "teamScoutingEvalCriteria": {
      "type": "Number",
      "required": false,
      "length": null,
      "precision": 32,
      "scale": 0,
      "postgresql": {
        "columnName": "team_scouting_eval_criteria_id",
        "dataType": "integer",
        "dataLength": null,
        "dataPrecision": 32,
        "dataScale": 0,
        "nullable": "YES"
      }
    }
  },
  "acls": [
    {
      "accessType": "*",
      "principalType": "ROLE",
      "principalId": "$everyone",
      "permission": "DENY"
    },
    {
      "accessType": "*",
      "principalType": "ROLE",
      "principalId": "TEAM-ADMIN",
      "permission": "ALLOW"
    },
    {
      "accessType": "READ",
      "principalType": "ROLE",
      "principalId": "SCOUT",
      "permission": "ALLOW"
    }
  ]
}
