{
  "name": "UserRole",
  "plural": "UserRoles",
  "base": "BaseTeamModel",
  "postgresql": {
    "schema": "godeepmobile",
    "table": "view_active_user_non_players"
  },
  "properties": {
    "id": {
      "type": "Number",
      "required": true,
      "length": null,
      "precision": 32,
      "scale": 0,
      "id": 1,
      "postgresql": {
        "columnName": "id",
        "dataType": "integer",
        "dataLength": null,
        "dataPrecision": 32,
        "dataScale": 0,
        "nullable": "NO"
      }
    },
    "team": {
      "type": "String",
      "required": true,
      "postgresql": {
        "columnName": "go_team_id",
        "dataType": "uuid",
        "nullable": "NO"
      }
    },
    "fullName": {
      "type": "string",
      "required": true,
      "postgresql": {
        "columnName": "full_name",
        "dataType": "character varying",
        "dataLength": 256,
        "dataPrecision": null,
        "dataScale": null,
        "nullable": "NO"
      }
    },
    "role": {
      "type": "string",
      "required": true,
      "postgresql": {
        "columnName": "role",
        "dataType": "character varying",
        "dataLength": 100,
        "dataPrecision": null,
        "dataScale": null,
        "nullable": "NO"
      }
    }
  },
  "acls": [
    {
      "accessType": "*",
      "principalType": "ROLE",
      "principalId": "$everyone",
      "permission": "DENY"
    },
    {
      "accessType": "*",
      "principalType": "ROLE",
      "principalId": "TEAM-ADMIN",
      "permission": "ALLOW"
    }
  ],
  "methods": []
}
