{
  "_meta": {
    "sources": [
      "loopback/common/models",
      "loopback/server/models",
      "../common/models",
      "./models",
      "./node_modules/loopback-component-passport/lib/models"
    ]
  },

  "User": {
    "dataSource": "db"
  },
  "AccessToken": {
    "dataSource": "db",
    "public": false
  },
  "ACL": {
    "dataSource": "db",
    "public": false
  },
  "RoleMapping": {
    "dataSource": "db",
    "public": false
  },
  "Role": {
    "dataSource": "db",
    "public": false
  },

  "lb_accesstoken": {
    "dataSource": "redisDS",
    "public": false
  },

  "lb_upload_status": {
    "dataSource": "postgresDS",
    "public": false
  },

  "OrganizationType": {
    "dataSource": "postgresDS",
    "public": true
  },
  "Organization": {
    "dataSource": "postgresDS",
    "public": true
  },
  "TeamPlayer": {
    "dataSource": "postgresDS",
    "public": true
  },
  "TeamPlayerAssignment": {
    "dataSource": "postgresDS",
    "public": true
  },
  "TeamPlayerCareerStat": {
    "dataSource": "postgresDS",
    "public": true
  },
  "TeamPlayerSeasonStat": {
    "dataSource": "postgresDS",
    "public": true
  },
  "Conference": {
    "dataSource": "postgresDS",
    "public": true
  },
  "UserRoleType": {
    "dataSource": "postgresDS",
    "public": true
  },
  "BaseModel": {
    "dataSource": "postgresDS",
    "public": false
  },
  "Permission": {
    "dataSource": "postgresDS",
    "public": false
  },
  "RolePermission": {
    "dataSource": "postgresDS",
    "public": false
  },
  "Team": {
    "dataSource": "postgresDS",
    "public": true
  },
  "UserTeamAssignment": {
    "dataSource": "postgresDS",
    "public": true
  },
  "GoUser": {
    "dataSource": "postgresDS",
    "public": true
  },
  "PlatoonType": {
    "dataSource": "postgresDS",
    "public": true
  },
  "TeamPositionType": {
    "dataSource": "postgresDS",
    "public": true
  },
  "TeamPositionImportance": {
    "dataSource": "postgresDS",
    "public": true
  },
  "BodyType": {
    "dataSource": "postgresDS",
    "public": true
  },
  "State": {
    "dataSource": "postgresDS",
    "public": true
  },
  "PositionType": {
    "dataSource": "postgresDS",
    "public": true
  },
  "SportType": {
    "dataSource": "postgresDS",
    "public": true
  },
  "TeamPlay": {
    "dataSource": "postgresDS",
    "public": true
  },
  "Grade": {
    "dataSource": "postgresDS",
    "public": true
  },
  "GameEvent": {
    "dataSource": "postgresDS",
    "public": true
  },
  "TeamPositionGroup": {
    "dataSource": "postgresDS",
    "public": true
  },
  "TeamEvent": {
    "dataSource": "postgresDS",
    "public": true
  },
  "FieldCondition": {
    "dataSource": "postgresDS",
    "public": true
  },
  "EventType": {
    "dataSource": "postgresDS",
    "public": true
  },
  "SurfaceType": {
    "dataSource": "postgresDS",
    "public": true
  },
  "PlayResultType": {
    "dataSource": "postgresDS",
    "public": true
  },
  "PlayType": {
    "dataSource": "postgresDS",
    "public": true
  },
  "TeamPracticeDrillType": {
    "dataSource": "postgresDS",
    "public": true
  },
  "TeamUserPositionGroupAssignment": {
    "dataSource": "postgresDS",
    "public": true
  },
  "TeamConfiguration": {
    "dataSource": "postgresDS",
    "public": true
  },
  "TeamPlatoonConfiguration": {
    "dataSource": "postgresDS",
    "public": true
  },
  "TeamPlayerGameStat": {
    "dataSource": "postgresDS",
    "public": true
  },
  "TeamPlayerGameCutupStat": {
    "dataSource": "postgresDS",
    "public": true
  },
  "TeamEventGradeStatus": {
    "dataSource": "postgresDS",
    "public": true
  },
  "TeamUser": {
    "dataSource": "postgresDS",
    "public": true
  },
  "TeamReportData": {
    "dataSource": "postgresDS",
    "public": true
  },
  "TeamReportPlatoonEventDataByQuarter": {
    "dataSource": "postgresDS",
    "public": true
  },
  "TeamReportPlayerEventDataByQuarter": {
    "dataSource": "postgresDS",
    "public": true
  },
  "TeamReportPlayerEventDataByEvent": {
    "dataSource": "postgresDS",
    "public": true
  },
  "TeamReportPositionTypeEventDataByQuarter": {
    "dataSource": "postgresDS",
    "public": true
  },
  "UserRole": {
    "dataSource": "postgresDS",
    "public": true
  },
  "TeamCutup": {
    "dataSource": "postgresDS",
    "public": true
  },
  "PlayFactor": {
    "dataSource": "postgresDS",
    "public": true
  },
  "TeamPlayerEventGameGrade": {
    "dataSource": "postgresDS",
    "public": true
  },
  "Level": {
    "dataSource": "postgresDS",
    "public": true
  },
  "TeamReport": {
    "dataSource": "postgresDS",
    "public": true
  },
  "ReportType": {
    "dataSource": "postgresDS",
    "public": true
  },
  "ScoutingEvalCriteriaType": {
    "dataSource": "postgresDS",
    "public": true
  },
  "ScoutingEvalCriteria": {
    "dataSource": "postgresDS",
    "public": true
  },
  "TeamScoutingEvalCriteria": {
    "dataSource": "postgresDS",
    "public": true
  },
  "TeamScoutingEvalScore": {
    "dataSource": "postgresDS",
    "public": true
  },
  "TeamProspect": {
    "dataSource": "postgresDS",
    "public": true
  },
  "TeamProspectAssignment": {
    "dataSource": "postgresDS",
    "public": true
  },
  "TeamScoutingEvalScoreGroup": {
    "dataSource": "postgresDS",
    "public": true
  },
  "TeamTargetProfile": {
    "dataSource": "postgresDS",
    "public": true
  },
  "Importance": {
    "dataSource": "postgresDS",
    "public": true
  },
  "PlayerEvaluationStat": {
    "dataSource": "postgresDS",
    "public": true
  },
  "PlayerRankOverall": {
    "dataSource": "postgresDS",
    "public": true
  },
  "ProspectEvaluationRankOverall": {
    "dataSource": "postgresDS",
    "public": true
  }
}
